Test {flowchart} with CONSORT diagram from safo example data
…
Start a flowchart

safo_fc <- safo |> 
  as_fc()
safo_fc

$data
# A tibble: 925 × 21
      id inclusion_crit exclusion_crit chronic_heart_failure
   <int> <fct>          <fct>          <fct>                
 1     1 Yes            No             No                   
 2     2 No             No             No                   
 3     3 No             No             No                   
 4     4 No             Yes            No                   
 5     5 No             No             No                   
 6     6 No             Yes            No                   
 7     7 No             No             No                   
 8     8 No             Yes            No                   
 9     9 No             No             No                   
10    10 No             No             No                   
# ℹ 915 more rows
# ℹ 17 more variables: expected_death_24h <fct>,
#   polymicrobial_bacteremia <fct>,
#   conditions_affect_adhrence <fct>,
#   susp_prosthetic_valve_endocard <fct>,
#   severe_liver_cirrhosis <fct>, acute_sars_cov2 <fct>,
#   blactam_fosfomycin_hypersens <fct>, …
…
