Building a CONSORT diagram with the {flowchart} package for Upa Phase 3 for UC
…
upa_fc6

$data
# A tibble: 227 × 15
# Groups:   group [5]
      id inclusion_crit exclusion_crit withdrew_consent
   <int> <chr>          <chr>          <chr>           
 1     1 No             No             No              
 2     2 No             No             No              
 3     3 No             No             No              
 4     4 No             No             No              
 5     5 No             No             No              
 6     6 No             No             No              
 7     7 No             No             No              
 8     8 No             No             No              
 9     9 No             No             No              
10    10 No             No             No              
# ℹ 217 more rows
# ℹ 11 more variables: lost_to_follow_up <chr>,
#   other_reasons <chr>, group <ord>, completed <chr>,
#   adverse_event <chr>, lack_of_efficacy <chr>,
#   other_reason_withdraw <chr>, itt <chr>,
#   reason_itt <chr>, pp <chr>, reason_pp <chr>
…
